ss3_ALL.csv

Model,MSO58

Channel,CH1,,Channel,CH2,,Channel,CH3,,Channel,CH8

Waveform Type,ANALOG,,Waveform Type,ANALOG,,Waveform Type,ANALOG,,Waveform Type,DIGITAL

Horizontal Units,s,,Horizontal Units,s,,Horizontal Units,s,,Horizontal Units,s

Sample Interval,4.00000000e-09,,Sample Interval,4.00000000e-09,,Sample Interval,4.00000000e-09,,Sample Interval,4.00000000e-09

Record Length,16002,,Record Length,16002,,Record Length,16002,,Record Length,16002

Zero Index,-2399088.16000000,,Zero Index,-2399088.16000000,,Zero Index,-2399088.16000000,,Zero Index,-2399088.16000000

Vertical Units,V,,Vertical Units,V,,Vertical Units,V,,Vertical Units,None

,,,,,,,,,,

ANALOG_Thumbnail,CH1_DECI,,ANALOG_Thumbnail,CH2_DECI,,ANALOG_Thumbnail,CH3_DECI,,,



TIME,CH1,CH2,CH3,CH8_D7,CH8_D6,CH8_D5,CH8_D4,CH8_D3,CH8_D2,CH8_D1,CH8_D0

9.59635264e-03,-9.56250000e-02,2.36562500e+00,3.47000000e+00,1,0,0,0,0,0,0,0

9.59635664e-03,3.25062500e+00,-1.11875000e-01,3.23500000e+00,1,0,0,0,0,0,0,0

9.59636064e-03,2.59750000e+00,2.15312500e-01,3.18500000e+00,1,0,0,0,0,0,0,0

9.59636464e-03,2.70125000e+00,3.50625000e-01,3.32000000e+00,1,0,0,0,0,0,0,0

9.59636864e-03,3.01750000e+00,2.12500000e-01,3.45500000e+00,1,0,0,0,0,0,0,0

9.59637264e-03,2.81750000e+00,2.49343750e+00,3.13000000e+00,1,0,0,0,0,0,0,0

9.59637664e-03,2.70000000e+00,3.33093750e+00,3.46500000e+00,1,0,0,0,0,0,0,0

9.59638064e-03,3.10750000e+00,3.23031250e+00,3.46500000e+00,1,0,0,0,0,0,0,0

9.59638464e-03,3.08250000e+00,2.91531250e+00,3.25000000e+00,1,0,0,0,0,0,0,0

9.59638864e-03,2.61500000e+00,3.11093750e+00,3.43500000e+00,1,0,0,0,0,0,0,0

9.59639264e-03,3.00750000e+00,-4.78125000e-02,3.46000000e+00,0,0,0,1,0,0,0,0

9.59639664e-03,2.96500000e+00,1.43750000e-02,3.12000000e+00,0,0,0,1,0,0,0,0

9.59640064e-03,2.71687500e+00,9.50000000e-02,3.27000000e+00,0,0,0,1,0,0,0,0

9.59640464e-03,2.90000000e+00,1.97812500e-01,3.49500000e+00,0,0,0,1,0,0,0,0

9.59640864e-03,3.01750000e+00,1.25281250e+00,3.16000000e+00,0,0,0,1,0,0,0,0

9.59641264e-03,2.59000000e+00,3.39781250e+00,3.36000000e+00,0,0,0,1,0,0,0,0

9.59641664e-03,3.10750000e+00,3.06906250e+00,3.50500000e+00,0,0,0,1,0,0,0,0

9.59642064e-03,3.06500000e+00,3.02187500e+00,3.37000000e+00,0,0,0,1,0,0,0,0

9.59642464e-03,2.65750000e+00,3.15125000e+00,3.29000000e+00,0,0,0,1,0,0,0,0

9.59642864e-03,2.52500000e-01,3.91875000e-01,3.69500000e+00,1,0,0,0,0,0,0,0

9.59643264e-03,8.87500000e-02,1.53125000e-02,3.12000000e+00,1,0,0,0,0,0,0,0

9.59643664e-03,-4.08125000e-01,-9.03125000e-02,3.20000000e+00,1,0,0,0,0,0,0,0

9.59644064e-03,1.80000000e-01,3.05000000e-01,3.36000000e+00,1,0,0,0,0,0,0,0

9.59644464e-03,2.62500000e-01,3.95312500e-01,3.38500000e+00,1,0,0,0,0,0,0,0

9.59644864e-03,-1.28750000e-01,3.33156250e+00,3.18500000e+00,1,0,0,0,0,0,0,0

9.59645264e-03,1.06250000e-01,3.13500000e+00,3.39500000e+00,1,0,0,0,0,0,0,0

9.59645664e-03,1.21250000e-01,3.18312500e+00,3.40000000e+00,1,0,0,0,0,0,0,0

9.59646064e-03,-1.87500000e-02,3.21531250e+00,3.16500000e+00,1,0,0,0,0,0,0,0

9.59646464e-03,1.87500000e-02,1.01218750e+00,3.42500000e+00,0,0,0,1,0,0,0,0

9.59646864e-03,1.33125000e-01,-6.87500000e-02,3.24500000e+00,0,0,0,1,0,0,0,0

9.59647264e-03,-3.16250000e-01,3.08750000e-01,3.14000000e+00,0,0,0,1,0,0,0,0

9.59647664e-03,-1.43750000e-01,3.73437500e-01,3.24000000e+00,0,0,0,1,0,0,0,0

9.59648064e-03,1.43750000e-01,3.02187500e-01,3.29500000e+00,0,0,0,1,0,0,0,0

9.59648464e-03,-1.18750000e-01,3.24187500e+00,3.18500000e+00,0,0,0,1,0,0,0,0

9.59648864e-03,-6.12500000e-02,3.28000000e+00,3.46500000e+00,0,0,0,1,0,0,0,0

9.59649264e-03,9.87500000e-02,3.42156250e+00,3.39000000e+00,0,0,0,1,0,0,0,0

9.59649664e-03,6.12500000e-02,3.08062500e+00,3.25500000e+00,0,0,0,1,0,0,0,0

9.59650064e-03,-1.21250000e-01,2.65562500e+00,3.44000000e+00,0,0,0,0,0,0,0,0

9.59650464e-03,2.00625000e-01,-4.34375000e-02,3.34000000e+00,1,0,0,0,0,0,0,0

9.59650864e-03,-1.93750000e-01,2.26875000e-01,3.17000000e+00,1,0,0,0,0,0,0,0

9.59651264e-03,-1.31250000e-01,2.63125000e-01,3.15500000e+00,1,0,0,0,0,0,0,0

9.59651664e-03,1.18750000e-01,1.77812500e-01,3.43500000e+00,1,0,0,0,0,0,0,0

9.59652064e-03,-1.87500000e-02,2.55031250e+00,3.21000000e+00,1,0,0,0,0,0,0,0

9.59652464e-03,-9.87500000e-02,3.34343750e+00,3.40500000e+00,1,0,0,0,0,0,0,0

9.59652864e-03,2.67500000e-01,3.13593750e+00,3.48000000e+00,1,0,0,0,0,0,0,0

9.59653264e-03,1.69375000e-01,3.02312500e+00,3.34000000e+00,1,0,0,0,0,0,0,0

9.59653664e-03,-1.16250000e-01,3.04625000e+00,3.37500000e+00,1,0,0,0,0,0,0,0

9.59654064e-03,1.18750000e-01,-6.40625000e-02,3.47500000e+00,0,0,0,1,0,0,0,0

9.59654464e-03,8.37500000e-02,9.53125000e-02,3.19000000e+00,0,0,0,1,0,0,0,0

9.59654864e-03,-4.87500000e-02,2.96875000e-02,3.28500000e+00,0,0,0,1,0,0,0,0

9.59655264e-03,3.37500000e-02,2.39062500e-01,3.47500000e+00,0,0,0,1,0,0,0,0

9.59655664e-03,1.59375000e-01,1.30343750e+00,3.18500000e+00,0,0,0,1,0,0,0,0

9.59656064e-03,-2.26250000e-01,3.36562500e+00,3.36000000e+00,0,0,0,1,0,0,0,0

9.59656464e-03,2.67500000e-01,3.07750000e+00,3.51000000e+00,0,0,0,1,0,0,0,0

9.59656864e-03,1.95000000e-01,3.03968750e+00,3.40500000e+00,0,0,0,1,0,0,0,0

9.59657264e-03,-1.13750000e-01,3.10500000e+00,3.21500000e+00,0,0,0,1,0,0,0,0

9.59657664e-03,9.37500000e-02,3.56250000e-01,3.58000000e+00,1,0,0,0,0,0,0,0

9.59658064e-03,1.72500000e-01,2.96875000e-02,3.19000000e+00,1,0,0,0,0,0,0,0

9.59658464e-03,-4.62500000e-02,6.15625000e-02,3.26500000e+00,1,0,0,0,0,0,0,0

9.59658864e-03,-1.36250000e-01,3.95000000e-01,3.42500000e+00,1,0,0,0,0,0,0,0

9.59659264e-03,2.40000000e-01,2.67500000e-01,3.27000000e+00,1,0,0,0,0,0,0,0

9.59659664e-03,-1.53750000e-01,3.35687500e+00,3.15000000e+00,1,0,0,0,0,0,0,0

9.59660064e-03,-1.12500000e-02,3.26906250e+00,3.47500000e+00,1,0,0,0,0,0,0,0

9.59660464e-03,1.60625000e-01,3.23468750e+00,3.42000000e+00,1,0,0,0,0,0,0,0

9.59660864e-03,-1.01250000e-01,3.17562500e+00,3.14500000e+00,1,0,0,0,0,0,0,0

9.59661264e-03,-4.37500000e-02,1.27187500e+00,3.42500000e+00,0,0,0,1,0,0,0,0

9.59661664e-03,1.97500000e-01,-3.65625000e-02,3.24500000e+00,0,0,0,1,0,0,0,0

9.59662064e-03,-2.78125000e-01,3.14062500e-01,3.10500000e+00,0,0,0,1,0,0,0,0

9.59662464e-03,-1.91250000e-01,3.96875000e-01,3.30000000e+00,0,0,0,1,0,0,0,0

9.59662864e-03,1.23750000e-01,2.89687500e-01,3.33000000e+00,0,0,0,1,0,0,0,0

9.59663264e-03,-9.37500000e-02,3.18281250e+00,3.14500000e+00,0,0,0,1,0,0,0,0

9.59663664e-03,-1.43750000e-01,3.34281250e+00,3.42500000e+00,0,0,0,1,0,0,0,0

9.59664064e-03,1.28125000e-01,3.38843750e+00,3.37500000e+00,0,0,0,1,0,0,0,0

9.59664464e-03,1.01250000e-01,3.03468750e+00,3.23500000e+00,0,0,0,1,0,0,0,0

9.59664864e-03,-1.88750000e-01,2.73062500e+00,3.45500000e+00,0,0,0,1,0,0,0,0

9.59665264e-03,2.27500000e-01,-4.75000000e-02,3.32000000e+00,1,0,0,0,0,0,0,0

9.59665664e-03,-1.98750000e-01,1.86875000e-01,3.17000000e+00,1,0,0,0,0,0,0,0

9.59666064e-03,-1.86250000e-01,2.79687500e-01,3.25000000e+00,1,0,0,0,0,0,0,0

9.59666464e-03,1.28750000e-01,1.59375000e-01,3.45500000e+00,1,0,0,0,0,0,0,0

9.59666864e-03,1.37500000e-02,2.53406250e+00,3.17500000e+00,1,0,0,0,0,0,0,0

9.59667264e-03,-1.18750000e-01,3.37468750e+00,3.48500000e+00,1,0,0,0,0,0,0,0

9.59667664e-03,3.02500000e-01,3.12843750e+00,3.52000000e+00,1,0,0,0,0,0,0,0

9.59668064e-03,2.00000000e-01,2.99218750e+00,3.27500000e+00,1,0,0,0,0,0,0,0

9.59668464e-03,-1.63750000e-01,3.05125000e+00,3.38000000e+00,1,0,0,0,0,0,0,0

9.59668864e-03,1.60625000e-01,-3.12500000e-02,3.53000000e+00,0,0,0,1,0,0,0,0

9.59669264e-03,1.16250000e-01,5.09375000e-02,3.18500000e+00,0,0,0,1,0,0,0,0

9.59669664e-03,-3.62500000e-02,1.62500000e-02,3.24500000e+00,0,0,0,1,0,0,0,0

9.59670064e-03,5.37500000e-02,2.53125000e-01,3.46000000e+00,0,0,0,1,0,0,0,0

9.59670464e-03,1.85000000e-01,1.08125000e+00,3.14000000e+00,0,0,0,1,0,0,0,0

9.59670864e-03,-2.46875000e-01,3.35937500e+00,3.36500000e+00,0,0,0,1,0,0,0,0

9.59671264e-03,2.55625000e-01,3.07531250e+00,3.49000000e+00,0,0,0,1,0,0,0,0

9.59671664e-03,1.80000000e-01,3.06000000e+00,3.41000000e+00,0,0,0,1,0,0,0,0

9.59672064e-03,-1.13750000e-01,3.15000000e+00,3.24000000e+00,0,0,0,1,0,0,0,0

9.59672464e-03,8.87500000e-02,4.22500000e-01,3.58000000e+00,1,0,0,0,0,0,0,0

9.59672864e-03,1.63125000e-01,2.25000000e-02,3.15500000e+00,1,0,0,0,0,0,0,0

9.59673264e-03,-1.23125000e-01,1.31250000e-01,3.28000000e+00,1,0,0,0,0,0,0,0

9.59673664e-03,-1.11250000e-01,3.91250000e-01,3.42500000e+00,1,0,0,0,0,0,0,0

9.59674064e-03,2.40000000e-01,2.63750000e-01,3.21500000e+00,1,0,0,0,0,0,0,0

9.59674464e-03,-1.83750000e-01,3.35437500e+00,3.16000000e+00,1,0,0,0,0,0,0,0

9.59674864e-03,-1.12500000e-02,3.26781250e+00,3.44500000e+00,1,0,0,0,0,0,0,0

9.59675264e-03,1.26250000e-01,3.21843750e+00,3.41000000e+00,1,0,0,0,0,0,0,0

9.59675664e-03,-5.12500000e-02,3.16656250e+00,3.18500000e+00,1,0,0,0,0,0,0,0

9.59676064e-03,-4.37500000e-02,1.21562500e+00,3.49000000e+00,0,0,0,1,0,0,0,0

9.59676464e-03,1.81875000e-01,-2.90625000e-02,3.22500000e+00,0,0,0,1,0,0,0,0

9.59676864e-03,-3.23750000e-01,3.08750000e-01,3.14000000e+00,0,0,0,1,0,0,0,0

9.59677264e-03,-1.58750000e-01,3.93437500e-01,3.32000000e+00,0,0,0,1,0,0,0,0

9.59677664e-03,1.70625000e-01,2.94687500e-01,3.25000000e+00,0,0,0,1,0,0,0,0

9.59678064e-03,-7.87500000e-02,3.19281250e+00,3.15000000e+00,0,0,0,1,0,0,0,0

9.59678464e-03,-1.13750000e-01,3.32593750e+00,3.45000000e+00,0,0,0,1,0,0,0,0

9.59678864e-03,1.03125000e-01,3.38718750e+00,3.39000000e+00,0,0,0,1,0,0,0,0

9.59679264e-03,1.01250000e-01,3.04937500e+00,3.21000000e+00,0,0,0,1,0,0,0,0

9.59679664e-03,-2.31250000e-01,2.97125000e+00,3.44000000e+00,0,0,0,1,0,0,0,0

9.59680064e-03,1.92500000e-01,-3.03125000e-02,3.35000000e+00,1,0,0,0,0,0,0,0

9.59680464e-03,-1.43750000e-01,1.59687500e-01,3.18000000e+00,1,0,0,0,0,0,0,0

9.59680864e-03,-1.83750000e-01,2.33125000e-01,3.17500000e+00,1,0,0,0,0,0,0,0

9.59681264e-03,1.43750000e-01,1.52187500e-01,3.49000000e+00,1,0,0,0,0,0,0,0

9.59681664e-03,3.12500000e-02,2.36625000e+00,3.18000000e+00,1,0,0,0,0,0,0,0

9.59682064e-03,-1.73750000e-01,3.38500000e+00,3.41500000e+00,1,0,0,0,0,0,0,0

9.59682464e-03,3.10000000e-01,3.08562500e+00,3.47500000e+00,1,0,0,0,0,0,0,0

9.59682864e-03,1.64375000e-01,3.01562500e+00,3.29500000e+00,1,0,0,0,0,0,0,0

9.59683264e-03,-1.23750000e-01,3.03937500e+00,3.36000000e+00,1,0,0,0,0,0,0,0

9.59683664e-03,1.58125000e-01,-2.50000000e-02,3.47000000e+00,0,0,0,1,0,0,0,0

9.59684064e-03,1.08750000e-01,5.71875000e-02,3.20500000e+00,0,0,0,1,0,0,0,0

9.59684464e-03,-2.87500000e-02,7.50000000e-03,3.30000000e+00,0,0,0,1,0,0,0,0

9.59684864e-03,1.12500000e-02,2.59375000e-01,3.49000000e+00,0,0,0,1,0,0,0,0

9.59685264e-03,1.43125000e-01,1.09125000e+00,3.16000000e+00,0,0,0,1,0,0,0,0

9.59685664e-03,-2.31875000e-01,3.36281250e+00,3.33000000e+00,0,0,0,1,0,0,0,0

9.59686064e-03,2.32500000e-01,3.07656250e+00,3.46000000e+00,0,0,0,1,0,0,0,0

9.59686464e-03,1.97500000e-01,3.05906250e+00,3.37500000e+00,0,0,0,1,0,0,0,0

9.59686864e-03,-1.06250000e-01,3.14406250e+00,3.28000000e+00,0,0,0,1,0,0,0,0

9.59687264e-03,7.62500000e-02,4.46250000e-01,3.54000000e+00,1,0,0,0,0,0,0,0

9.59687664e-03,1.36250000e-01,2.87500000e-02,3.19500000e+00,1,0,0,0,0,0,0,0

9.59688064e-03,-1.23125000e-01,1.31250000e-01,3.25000000e+00,1,0,0,0,0,0,0,0

9.59688464e-03,-1.31250000e-01,3.87500000e-01,3.41000000e+00,1,0,0,0,0,0,0,0

9.59688864e-03,2.07500000e-01,2.65625000e-01,3.24500000e+00,1,0,0,0,0,0,0,0

9.59689264e-03,-1.76250000e-01,3.35375000e+00,3.15000000e+00,1,0,0,0,0,0,0,0

9.59689664e-03,-2.87500000e-02,3.27906250e+00,3.50500000e+00,1,0,0,0,0,0,0,0

9.59690064e-03,1.23750000e-01,3.26593750e+00,3.49000000e+00,1,0,0,0,0,0,0,0

9.59690464e-03,-5.37500000e-02,3.15312500e+00,3.22000000e+00,1,0,0,0,0,0,0,0

9.59690864e-03,-7.37500000e-02,1.51531250e+00,3.40500000e+00,0,0,0,1,0,0,0,0

9.59691264e-03,2.57500000e-01,-1.78125000e-02,3.31000000e+00,0,0,0,1,0,0,0,0

9.59691664e-03,-2.70625000e-01,3.16562500e-01,3.16500000e+00,0,0,0,1,0,0,0,0

9.59692064e-03,-1.96250000e-01,3.87187500e-01,3.25000000e+00,0,0,0,1,0,0,0,0

9.59692464e-03,1.43750000e-01,2.83125000e-01,3.39000000e+00,0,0,0,1,0,0,0,0

9.59692864e-03,-7.37500000e-02,3.11750000e+00,3.11000000e+00,0,0,0,1,0,0,0,0

9.59693264e-03,-1.31250000e-01,3.33437500e+00,3.44500000e+00,0,0,0,1,0,0,0,0

9.59693664e-03,1.43125000e-01,3.34781250e+00,3.38500000e+00,0,0,0,1,0,0,0,0

9.59694064e-03,1.08125000e-01,3.02343750e+00,3.22500000e+00,0,0,0,1,0,0,0,0

9.59694464e-03,-1.93750000e-01,2.91937500e+00,3.48000000e+00,0,0,0,1,0,0,0,0

9.59694864e-03,2.15000000e-01,-3.37500000e-02,3.39500000e+00,1,0,0,0,0,0,0,0

9.59695264e-03,-1.78750000e-01,1.40937500e-01,3.14000000e+00,1,0,0,0,0,0,0,0

9.59695664e-03,-2.06250000e-01,2.29375000e-01,3.26000000e+00,1,0,0,0,0,0,0,0

9.59696064e-03,1.63125000e-01,1.48437500e-01,3.42000000e+00,1,0,0,0,0,0,0,0

9.59696464e-03,4.87500000e-02,2.32593750e+00,3.17000000e+00,1,0,0,0,0,0,0,0

9.59696864e-03,-1.63750000e-01,3.37593750e+00,3.41500000e+00,1,0,0,0,0,0,0,0

9.59697264e-03,2.90000000e-01,3.08281250e+00,3.53000000e+00,1,0,0,0,0,0,0,0

9.59697664e-03,1.82500000e-01,3.00218750e+00,3.37000000e+00,1,0,0,0,0,0,0,0

9.59698064e-03,-1.43750000e-01,3.04375000e+00,3.41500000e+00,1,0,0,0,0,0,0,0

9.59698464e-03,1.33750000e-01,-1.87500000e-02,3.49000000e+00,0,0,0,1,0,0,0,0

9.59698864e-03,1.06250000e-01,5.43750000e-02,3.17000000e+00,0,0,0,1,0,0,0,0

9.59699264e-03,-2.87500000e-02,-3.12500000e-04,3.30500000e+00,0,0,0,1,0,0,0,0

9.59699664e-03,2.62500000e-02,2.60312500e-01,3.45000000e+00,0,0,0,1,0,0,0,0

9.59700064e-03,2.12500000e-01,5.75000000e-01,3.19500000e+00,0,0,0,1,0,0,0,0

9.59700464e-03,-2.13750000e-01,3.34656250e+00,3.27000000e+00,0,0,0,1,0,0,0,0

9.59700864e-03,1.78125000e-01,3.11156250e+00,3.44500000e+00,0,0,0,1,0,0,0,0

9.59701264e-03,1.90000000e-01,3.12906250e+00,3.46000000e+00,0,0,0,1,0,0,0,0

9.59701664e-03,-1.21250000e-01,3.16906250e+00,3.25000000e+00,0,0,0,1,0,0,0,0

9.59702064e-03,1.37500000e-02,5.44687500e-01,3.46500000e+00,1,0,0,0,0,0,0,0

9.59702464e-03,1.44375000e-01,1.06250000e-02,3.21500000e+00,1,0,0,0,0,0,0,0

9.59702864e-03,-1.18125000e-01,1.90312500e-01,3.27500000e+00,1,0,0,0,0,0,0,0

9.59703264e-03,-1.11250000e-01,4.01250000e-01,3.34500000e+00,1,0,0,0,0,0,0,0

9.59703664e-03,2.08125000e-01,2.82812500e-01,3.21000000e+00,1,0,0,0,0,0,0,0

9.59704064e-03,-1.53750000e-01,3.32687500e+00,3.16500000e+00,1,0,0,0,0,0,0,0

9.59704464e-03,-3.62500000e-02,3.29406250e+00,3.48000000e+00,1,0,0,0,0,0,0,0

9.59704864e-03,1.06250000e-01,3.29812500e+00,3.40500000e+00,1,0,0,0,0,0,0,0

9.59705264e-03,-4.37500000e-02,3.14812500e+00,3.22000000e+00,1,0,0,0,0,0,0,0

9.59705664e-03,-6.12500000e-02,1.41625000e+00,3.45000000e+00,0,0,0,1,0,0,0,0

9.59706064e-03,2.45000000e-01,-4.21875000e-02,3.25000000e+00,0,0,0,1,0,0,0,0

9.59706464e-03,-2.44375000e-01,2.94687500e-01,3.14000000e+00,0,0,0,1,0,0,0,0

9.59706864e-03,-1.98750000e-01,4.05937500e-01,3.29500000e+00,0,0,0,1,0,0,0,0

9.59707264e-03,1.63125000e-01,2.76875000e-01,3.36500000e+00,0,0,0,1,0,0,0,0

9.59707664e-03,-7.62500000e-02,3.08750000e+00,3.10000000e+00,0,0,0,1,0,0,0,0

9.59708064e-03,-1.11250000e-01,3.33468750e+00,3.46500000e+00,0,0,0,1,0,0,0,0

9.59708464e-03,1.64375000e-01,3.34906250e+00,3.34500000e+00,0,0,0,1,0,0,0,0

9.59708864e-03,1.08750000e-01,3.03843750e+00,3.24500000e+00,0,0,0,1,0,0,0,0

9.59709264e-03,-2.08750000e-01,3.03531250e+00,3.48000000e+00,0,0,0,1,0,0,0,0

9.59709664e-03,1.80625000e-01,-2.96875000e-02,3.37500000e+00,1,0,0,0,0,0,0,0

9.59710064e-03,-1.53750000e-01,1.16562500e-01,3.14500000e+00,1,0,0,0,0,0,0,0

9.59710464e-03,-1.33750000e-01,2.12500000e-01,3.18500000e+00,1,0,0,0,0,0,0,0

9.59710864e-03,1.36250000e-01,1.74375000e-01,3.45500000e+00,1,0,0,0,0,0,0,0

9.59711264e-03,1.11250000e-01,2.13125000e+00,3.26000000e+00,1,0,0,0,0,0,0,0

9.59711664e-03,-1.93750000e-01,3.39218750e+00,3.42000000e+00,1,0,0,0,0,0,0,0

9.59712064e-03,3.20000000e-01,3.04875000e+00,3.47000000e+00,1,0,0,0,0,0,0,0

9.59712464e-03,1.95000000e-01,3.00562500e+00,3.42000000e+00,1,0,0,0,0,0,0,0

9.59712864e-03,-1.28750000e-01,3.04718750e+00,3.33000000e+00,1,0,0,0,0,0,0,0

9.59713264e-03,1.24375000e-01,1.75000000e-02,3.49500000e+00,0,0,0,1,0,0,0,0

9.59713664e-03,1.11250000e-01,2.06250000e-02,3.14000000e+00,0,0,0,1,0,0,0,0

9.59714064e-03,-2.62500000e-02,-7.81250000e-03,3.25500000e+00,0,0,0,1,0,0,0,0

9.59714464e-03,8.75000000e-03,2.81562500e-01,3.41500000e+00,0,0,0,1,0,0,0,0

9.59714864e-03,2.32500000e-01,6.34375000e-01,3.10000000e+00,0,0,0,1,0,0,0,0

9.59715264e-03,-2.67500000e-01,3.34375000e+00,3.30500000e+00,0,0,0,1,0,0,0,0

9.59715664e-03,1.70625000e-01,3.10875000e+00,3.44000000e+00,0,0,0,1,0,0,0,0

9.59716064e-03,2.00000000e-01,3.10250000e+00,3.43500000e+00,0,0,0,1,0,0,0,0

9.59716464e-03,-9.87500000e-02,3.17281250e+00,3.21500000e+00,0,0,0,1,0,0,0,0

9.59716864e-03,-1.25000000e-03,5.34062500e-01,3.56500000e+00,1,0,0,0,0,0,0,0

9.59717264e-03,1.33750000e-01,8.12500000e-03,3.23500000e+00,1,0,0,0,0,0,0,0

9.59717664e-03,-1.85625000e-01,1.61875000e-01,3.22500000e+00,1,0,0,0,0,0,0,0

9.59718064e-03,-1.56250000e-01,3.86250000e-01,3.38000000e+00,1,0,0,0,0,0,0,0

9.59718464e-03,2.35000000e-01,2.99687500e-01,3.25000000e+00,1,0,0,0,0,0,0,0

9.59718864e-03,-1.58750000e-01,3.32906250e+00,3.14500000e+00,1,0,0,0,0,0,0,0

9.59719264e-03,-5.12500000e-02,3.30343750e+00,3.48000000e+00,1,0,0,0,0,0,0,0

9.59719664e-03,1.28750000e-01,3.32062500e+00,3.35000000e+00,1,0,0,0,0,0,0,0

9.59720064e-03,-6.87500000e-02,3.13812500e+00,3.21000000e+00,1,0,0,0,0,0,0,0

9.59720464e-03,-7.62500000e-02,1.75468750e+00,3.49000000e+00,0,0,0,1,0,0,0,0

9.59720864e-03,2.65000000e-01,-2.06250000e-02,3.29500000e+00,0,0,0,1,0,0,0,0

9.59721264e-03,-2.80625000e-01,3.02187500e-01,3.18000000e+00,0,0,0,1,0,0,0,0

9.59721664e-03,-2.06250000e-01,3.68437500e-01,3.28000000e+00,0,0,0,1,0,0,0,0

9.59722064e-03,1.26250000e-01,2.45312500e-01,3.41500000e+00,0,0,0,1,0,0,0,0

9.59722464e-03,-5.87500000e-02,2.98406250e+00,3.17000000e+00,0,0,0,1,0,0,0,0

9.59722864e-03,-1.38750000e-01,3.35187500e+00,3.46000000e+00,0,0,0,1,0,0,0,0

9.59723264e-03,1.76875000e-01,3.28125000e+00,3.42000000e+00,0,0,0,1,0,0,0,0

9.59723664e-03,1.13125000e-01,3.00812500e+00,3.30000000e+00,0,0,0,1,0,0,0,0

9.59724064e-03,-2.01250000e-01,3.05875000e+00,3.46500000e+00,0,0,0,1,0,0,0,0

9.59724464e-03,1.65000000e-01,-3.25000000e-02,3.38500000e+00,1,0,0,0,0,0,0,0

9.59724864e-03,-1.18750000e-01,1.05312500e-01,3.13000000e+00,1,0,0,0,0,0,0,0

9.59725264e-03,-1.53750000e-01,1.71875000e-01,3.22500000e+00,1,0,0,0,0,0,0,0

9.59725664e-03,1.13750000e-01,1.70312500e-01,3.58500000e+00,1,0,0,0,0,0,0,0

9.59726064e-03,1.20625000e-01,2.17625000e+00,3.18000000e+00,1,0,0,0,0,0,0,0

9.59726464e-03,-1.58750000e-01,3.39000000e+00,3.40500000e+00,1,0,0,0,0,0,0,0

9.59726864e-03,3.00000000e-01,3.06750000e+00,3.50500000e+00,1,0,0,0,0,0,0,0

9.59727264e-03,1.56875000e-01,3.00062500e+00,3.36000000e+00,1,0,0,0,0,0,0,0

9.59727664e-03,-1.46250000e-01,3.05625000e+00,3.32000000e+00,1,0,0,0,0,0,0,0

9.59728064e-03,1.26875000e-01,5.28125000e-02,3.48000000e+00,0,0,0,1,0,0,0,0

9.59728464e-03,1.18750000e-01,3.87500000e-02,3.14500000e+00,0,0,0,1,0,0,0,0

9.59728864e-03,-3.62500000e-02,-1.75000000e-02,3.28500000e+00,0,0,0,1,0,0,0,0

9.59729264e-03,-6.25000000e-03,2.95625000e-01,3.46000000e+00,0,0,0,1,0,0,0,0

9.59729664e-03,2.25000000e-01,5.13125000e-01,3.18000000e+00,0,0,0,1,0,0,0,0

9.59730064e-03,-2.55625000e-01,3.35000000e+00,3.23500000e+00,0,0,0,1,0,0,0,0

9.59730464e-03,1.85625000e-01,3.13000000e+00,3.48000000e+00,0,0,0,1,0,0,0,0

9.59730864e-03,1.95000000e-01,3.12375000e+00,3.40000000e+00,0,0,0,1,0,0,0,0

9.59731264e-03,-1.26250000e-01,3.17281250e+00,3.17500000e+00,0,0,0,1,0,0,0,0

9.59731664e-03,2.12500000e-02,7.43125000e-01,3.46000000e+00,1,0,0,0,0,0,0,0

9.59732064e-03,1.08125000e-01,-7.81250000e-03,3.17500000e+00,1,0,0,0,0,0,0,0

9.59732464e-03,-2.13125000e-01,2.48437500e-01,3.23000000e+00,1,0,0,0,0,0,0,0

9.59732864e-03,-1.11250000e-01,3.71250000e-01,3.31000000e+00,1,0,0,0,0,0,0,0

9.59733264e-03,1.85625000e-01,2.92812500e-01,3.27500000e+00,1,0,0,0,0,0,0,0

9.59733664e-03,-1.86250000e-01,3.30312500e+00,3.21000000e+00,1,0,0,0,0,0,0,0

